Identity added: /nethome/jli458/.ssh/id_rsa (/nethome/jli458/.ssh/id_rsa)
Identity added: /nethome/jli458/.ssh/id_rsa (/nethome/jli458/.ssh/id_rsa)
--------------------------------------------------------------------------
The OpenFabrics (openib) BTL failed to initialize while trying to
allocate some locked memory.  This typically can indicate that the
memlock limits are set too low.  For most HPC installations, the
memlock limits should be set to "unlimited".  The failure occured
here:

  Local host:    jinx1
  OMPI source:   btl_openib_component.c:1200
  Function:      ompi_free_list_init_ex_new()
  Device:        mlx4_0
  Memlock limit: 65536

You may need to consult with your system administrator to get this
problem fixed.  This FAQ entry on the Open MPI web site may also be
helpful:

    http://www.open-mpi.org/faq/?category=openfabrics#ib-locked-pages
--------------------------------------------------------------------------
--------------------------------------------------------------------------
WARNING: There was an error initializing an OpenFabrics device.

  Local host:   jinx1
  Local device: mlx4_0
--------------------------------------------------------------------------
[jinx1:rank 0 of 2 -- mm1d.c:139] Creating 2048 x 4096 local problem...
[jinx7:rank 1 of 2 -- mm1d.c:139] Creating 2048 x 4096 local problem...
[jinx7:rank 1 of 2 -- mm1d.c:147] Performing one warm-up multiply...
[jinx1:rank 0 of 2 -- mm1d.c:147] Performing one warm-up multiply...
[jinx1:rank 0 of 2 -- mm1d.c:152] Timing trials...
[jinx7:rank 1 of 2 -- mm1d.c:152] Timing trials...
