Adding user jli458 to group authjobs
Initializing new SSH agent...
succeeded
*** STARTED: Tue Dec  2 21:22:26 EST 2014 on jinx1 ***
/nethome/jli458/Lab6/lab6-pgodbole
jinx1
jinx7



Initializing new SSH agent...
succeeded
========================================
Problem dimension: n = 4096
Number of MPI ranks: 2
Number of trials: 3
Time per trial (max over all processes): 1.17588 seconds
Computation time per trial (max over all processes): 0.553342 seconds
Effective performance: 116.9 GFLOP/s
========================================
*** COMPLETED: Tue Dec  2 21:22:34 EST 2014 on jinx1 ***
Removing user jli458 from group authjobs
